build/sha256_clean_test.vcd
$date
	Sat Aug  9 05:59:19 2025
$end
$version
	Icarus Verilog
$end
$timescale
	1ps
$end
$scope module SHA256_Clean_tb $end
$var wire 256 ! sha256_result [255:0] $end
$var wire 1 " sha256_done $end
$var reg 32 # A_i [31:0] $end
$var reg 32 $ B_i [31:0] $end
$var reg 32 % C_i [31:0] $end
$var reg 32 & D_i [31:0] $end
$var reg 32 ' E_i [31:0] $end
$var reg 32 ( F_i [31:0] $end
$var reg 32 ) G_i [31:0] $end
$var reg 32 * H_i [31:0] $end
$var reg 1 + clk $end
$var reg 256 , expected_result [255:0] $end
$var reg 1 - reset $end
$var reg 1 . start_in $end
$var reg 32 / w0_sha256 [31:0] $end
$var reg 32 0 w10_sha256 [31:0] $end
$var reg 32 1 w11_sha256 [31:0] $end
$var reg 32 2 w12_sha256 [31:0] $end
$var reg 32 3 w13_sha256 [31:0] $end
$var reg 32 4 w14_sha256 [31:0] $end
$var reg 32 5 w15_sha256 [31:0] $end
$var reg 32 6 w1_sha256 [31:0] $end
$var reg 32 7 w2_sha256 [31:0] $end
$var reg 32 8 w3_sha256 [31:0] $end
$var reg 32 9 w4_sha256 [31:0] $end
$var reg 32 : w5_sha256 [31:0] $end
$var reg 32 ; w6_sha256 [31:0] $end
$var reg 32 < w7_sha256 [31:0] $end
$var reg 32 = w8_sha256 [31:0] $end
$var reg 32 > w9_sha256 [31:0] $end
$var integer 32 ? cycle_count [31:0] $end
$scope module uut $end
$var wire 32 @ A_i [31:0] $end
$var wire 32 A B_i [31:0] $end
$var wire 32 B C_i [31:0] $end
$var wire 32 C D_i [31:0] $end
$var wire 32 D E_i [31:0] $end
$var wire 32 E F_i [31:0] $end
$var wire 32 F G_i [31:0] $end
$var wire 32 G H_i [31:0] $end
$var wire 1 + clk $end
$var wire 1 - reset $end
$var wire 1 . start_in $end
$var wire 32 H w0_sha256 [31:0] $end
$var wire 32 I w10_sha256 [31:0] $end
$var wire 32 J w11_sha256 [31:0] $end
$var wire 32 K w12_sha256 [31:0] $end
$var wire 32 L w13_sha256 [31:0] $end
$var wire 32 M w14_sha256 [31:0] $end
$var wire 32 N w15_sha256 [31:0] $end
$var wire 32 O w1_sha256 [31:0] $end
$var wire 32 P w2_sha256 [31:0] $end
$var wire 32 Q w3_sha256 [31:0] $end
$var wire 32 R w4_sha256 [31:0] $end
$var wire 32 S w5_sha256 [31:0] $end
$var wire 32 T w6_sha256 [31:0] $end
$var wire 32 U w7_sha256 [31:0] $end
$var wire 32 V w8_sha256 [31:0] $end
$var wire 32 W w9_sha256 [31:0] $end
$var wire 32 X w_minus_2 [31:0] $end
$var wire 32 Y w_minus_15 [31:0] $end
$var wire 32 Z sigma1_out [31:0] $end
$var wire 32 [ sigma0_out [31:0] $end
$var wire 32 \ s1_out [31:0] $end
$var wire 32 ] s0_out [31:0] $end
$var wire 32 ^ maj_out [31:0] $end
$var wire 32 _ ch_out [31:0] $end
$var wire 32 ` T2 [31:0] $end
$var wire 32 a T1 [31:0] $end
$var parameter 3 b DONE $end
$var parameter 3 c FINALIZE $end
$var parameter 32 d H0_INIT $end
$var parameter 32 e H1_INIT $end
$var parameter 32 f H2_INIT $end
$var parameter 32 g H3_INIT $end
$var parameter 32 h H4_INIT $end
$var parameter 32 i H5_INIT $end
$var parameter 32 j H6_INIT $end
$var parameter 32 k H7_INIT $end
$var parameter 3 l IDLE $end
$var parameter 3 m INIT $end
$var parameter 3 n PROCESS $end
$var reg 32 o H0 [31:0] $end
$var reg 32 p H1 [31:0] $end
$var reg 32 q H2 [31:0] $end
$var reg 32 r H3 [31:0] $end
$var reg 32 s H4 [31:0] $end
$var reg 32 t H5 [31:0] $end
$var reg 32 u H6 [31:0] $end
$var reg 32 v H7 [31:0] $end
$var reg 32 w a [31:0] $end
$var reg 32 x b [31:0] $end
$var reg 32 y c [31:0] $end
$var reg 32 z d [31:0] $end
$var reg 32 { e [31:0] $end
$var reg 32 | f [31:0] $end
$var reg 32 } g [31:0] $end
$var reg 32 ~ h [31:0] $end
$var reg 7 !" round_counter [6:0] $end
$var reg 1 " sha256_done $end
$var reg 256 "" sha256_result [255:0] $end
$var reg 3 #" state [2:0] $end
$scope function get_K $end
$var reg 6 $" round [5:0] $end
$upscope $end
$scope module ch_inst $end
$var wire 32 %" e [31:0] $end
$var wire 32 &" f [31:0] $end
$var wire 32 '" g [31:0] $end
$var wire 32 (" out [31:0] $end
$upscope $end
$scope module maj_inst $end
$var wire 32 )" A [31:0] $end
$var wire 32 *" B [31:0] $end
$var wire 32 +" C [31:0] $end
$var wire 32 ," M [31:0] $end
$upscope $end
$scope module s0_inst $end
$var wire 32 -" out [31:0] $end
$var wire 32 ." x [31:0] $end
$upscope $end
$scope module s1_inst $end
$var wire 32 /" out [31:0] $end
$var wire 32 0" x [31:0] $end
$upscope $end
$scope module sigma0_inst $end
$var wire 32 1" a [31:0] $end
$var wire 32 2" out [31:0] $end
$upscope $end
$scope module sigma1_inst $end
$var wire 32 3" e [31:0] $end
$var wire 32 4" out [31:0] $end
$upscope $end
$upscope $end
$upscope $end
$enddefinitions $end
$comment Show the parameter values. $end
$dumpall
b10 n
b1 m
b0 l
b1011011111000001100110100011001 k
b11111100000111101100110101011 j
b10011011000001010110100010001100 i
b1010001000011100101001001111111 h
b10100101010011111111010100111010 g
b111100011011101111001101110010 f
b10111011011001111010111010000101 e
b1101010000010011110011001100111 d
b11 c
b100 b
$end
#0
$dumpvars
b0 4"
b0 3"
b0 2"
b0 1"
b0 0"
b0 /"
b0 ."
b0 -"
b0 ,"
b0 +"
b0 *"
b0 )"
b0 ("
b0 '"
b0 &"
b0 %"
b0 $"
b0 #"
b0 ""
b0 !"
b0 ~
b0 }
b0 |
b0 {
b0 z
b0 y
b0 x
b0 w
b0 v
b0 u
b0 t
b0 s
b0 r
b0 q
b0 p
b0 o
bx a
b0 `
b0 _
b0 ^
b0 ]
b0 \
b0 [
b0 Z
b0 Y
b0 X
b0 W
b0 V
b0 U
b0 T
b0 S
b0 R
b0 Q
b0 P
b0 O
b0 N
b0 M
b0 L
b0 K
b0 J
b0 I
b0 H
b0 G
b0 F
b0 E
b0 D
b0 C
b0 B
b0 A
b0 @
b0 ?
b0 >
b0 =
b0 <
b0 ;
b0 :
b0 9
b0 8
b0 7
b0 6
b0 5
b0 4
b0 3
b0 2
b0 1
b0 0
b0 /
0.
0-
bx ,
0+
b0 *
b0 )
b0 (
b0 '
b0 &
b0 %
b0 $
b0 #
0"
b0 !
$end
#5000
1+
#10000
0+
1-
#15000
1+
#20000
0+
#25000
1+
#30000
0+
1.
b1011101001111000000101101011111110001111000000011100111111101010010000010100000101000000110111100101110110101110001000100010001110110000000000110110000110100011100101100001011101111010100111001011010000010000111111110110000111110010000000000001010110101101 ,
b11000 5
b11000 N
b1100001011000100110001110000000 /
b1100001011000100110001110000000 H
#35000
b1 #"
b1 ?
1+
#40000
0+
#45000
b110101100001110010011100101011 Z
b110101100001110010011100101011 4"
b11001110001000001011010001111110 [
b11001110001000001011010001111110 2"
b11111100001011100100110001100 _
b11111100001011100100110001100 ("
b1000100100001001101011100101 `
b111010011011111110011001100111 ^
b111010011011111110011001100111 ,"
b10 #"
b1010100110110100101000011101000 a
b1011011111000001100110100011001 ~
b11111100000111101100110101011 }
b11111100000111101100110101011 '"
b10011011000001010110100010001100 |
b10011011000001010110100010001100 &"
b1010001000011100101001001111111 {
b1010001000011100101001001111111 %"
b1010001000011100101001001111111 3"
b10100101010011111111010100111010 z
b111100011011101111001101110010 y
b111100011011101111001101110010 +"
b10111011011001111010111010000101 x
b10111011011001111010111010000101 *"
b1101010000010011110011001100111 w
b1101010000010011110011001100111 )"
b1101010000010011110011001100111 1"
b1011011111000001100110100011001 v
b11111100000111101100110101011 u
b10011011000001010110100010001100 t
b1010001000011100101001001111111 s
b10100101010011111111010100111010 r
b111100011011101111001101110010 q
b10111011011001111010111010000101 p
b1101010000010011110011001100111 o
b10 ?
1+
#50000
0+
#55000
b10100010100111110110010011010001 [
b10100010100111110110010011010001 2"
b1011010100101001111110100101101 Z
b1011010100101001111110100101101 4"
b1 $"
b11110000010110101001110010110 `
b1111011011010111110111011000101 ^
b1111011011010111110111011000101 ,"
b1010001000011110110101010101110 _
b1010001000011110110101010101110 ("
b1 !"
b1011101011010101110101111001101 w
b1011101011010101110101111001101 )"
b1011101011010101110101111001101 1"
b1101010000010011110011001100111 x
b1101010000010011110011001100111 *"
b10111011011001111010111010000101 y
b10111011011001111010111010000101 +"
b111100011011101111001101110010 z
b11111010001010100100011000100010 {
b11111010001010100100011000100010 %"
b11111010001010100100011000100010 3"
b1010001000011100101001001111111 |
b1010001000011100101001001111111 &"
b10011011000001010110100010001100 }
b10011011000001010110100010001100 '"
b111100010111111000011000010111 a
b11111100000111101100110101011 ~
b11 ?
1+
#60000
0+
#65000
b1111101101010000110010000000101 \
b1111101101010000110010000000101 /"
b110000100101101101000001010100 [
b110000100101101101000001010100 2"
b1110011111100001110010010010101 Z
b1110011111100001110010010010101 4"
b10 $"
b10001011000000011011110001000001 `
b1011010011010101110101111101101 ^
b1011010011010101110101111101101 ,"
b1111001000010100100001001110110 _
b1111001000010100100001001110110 ("
b1100001011000100110001110000000 X
b1100001011000100110001110000000 0"
b10 !"
b1011010011010101101100110101101 w
b1011010011010101101100110101101 )"
b1011010011010101101100110101101 1"
b1011101011010101110101111001101 x
b1011101011010101110101111001101 *"
b1101010000010011110011001100111 y
b1101010000010011110011001100111 +"
b10111011011001111010111010000101 z
b1111000110011100111100110001001 {
b1111000110011100111100110001001 %"
b1111000110011100111100110001001 3"
b11111010001010100100011000100010 |
b11111010001010100100011000100010 &"
b1010001000011100101001001111111 }
b1010001000011100101001001111111 '"
b111101110000011000101101100110 a
b10011011000001010110100010001100 ~
b100 ?
1+
#70000
0+
#75000
b0 \
b0 /"
b11000010000100000000100011010000 [
b11000010000100000000100011010000 2"
b110000001110111010000111100 Z
b110000001110111010000111100 4"
b11 $"
b11010011110101101010001111101 `
b1011000011010101100101110101101 ^
b1011000011010101100101110101101 ,"
b1111010000010100111111110001001 _
b1111010000010100111111110001001 ("
b0 X
b0 0"
b11 !"
b11001000110000110100011110100111 w
b11001000110000110100011110100111 )"
b11001000110000110100011110100111 1"
b1011010011010101101100110101101 x
b1011010011010101101100110101101 *"
b1011101011010101110101111001101 y
b1011101011010101110101111001101 +"
b1101010000010011110011001100111 z
b11111001001010010011100111101011 {
b11111001001010010011100111101011 %"
b11111001001010010011100111101011 3"
b1111000110011100111100110001001 |
b1111000110011100111100110001001 &"
b11111010001010100100011000100010 }
b11111010001010100100011000100010 '"
b10111010110101100010000111101001 a
b1010001000011100101001001111111 ~
b101 ?
1+
#80000
0+
#85000
b1000101101110110000110001001011 [
b1000101101110110000110001001011 2"
b111010100100110011010000110010 Z
b111010100100110011010000110010 4"
b100 $"
b11101111111011110001111110010 `
b11011000010000101101011110100111 ^
b11011000010000101101011110100111 ,"
b1111000001011100111100111001001 _
b1111000001011100111100111001001 ("
b100 !"
b11010101010100001111011001100110 w
b11010101010100001111011001100110 )"
b11010101010100001111011001100110 1"
b11001000110000110100011110100111 x
b11001000110000110100011110100111 *"
b1011010011010101101100110101101 y
b1011010011010101101100110101101 +"
b1011101011010101110101111001101 z
b100100111000000000100001010000 {
b100100111000000000100001010000 %"
b100100111000000000100001010000 3"
b11111001001010010011100111101011 |
b11111001001010010011100111101011 &"
b1111000110011100111100110001001 }
b1111000110011100111100110001001 '"
b11100110010000101011011001111000 a
b11111010001010100100011000100010 ~
b110 ?
1+
#90000
0+
#95000
b1010000001010011010110010001111 [
b1010000001010011010110010001111 2"
b10001011011101111110000110011100 Z
b10001011011101111110000110011100 4"
b101 $"
b10100011010101000001011110101 `
b11000100010000001101011001100110 ^
b11000100010000001101011001100110 ,"
b10111000101000000001100111101010 _
b10111000101000000001100111101010 ("
b101 !"
b100010000001001101001101010 w
b100010000001001101001101010 )"
b100010000001001101001101010 1"
b11010101010100001111011001100110 x
b11010101010100001111011001100110 *"
b11001000110000110100011110100111 y
b11001000110000110100011110100111 +"
b1011010011010101101100110101101 z
b1000011101011011010001001000101 {
b1000011101011011010001001000101 %"
b1000011101011011010001001000101 3"
b100100111000000000100001010000 |
b100100111000000000100001010000 &"
b11111001001010010011100111101011 }
b11111001001010010011100111101011 '"
b10110110101111000011100000000 a
b1111000110011100111100110001001 ~
b111 ?
1+
#100000
0+
#105000
b1101010111100000110011000000 [
b1101010111100000110011000000 2"
b1010110110111011101110110 Z
b1010110110111011101110110 4"
b110 $"
b10010100111101010011100100110 `
b101010000001001101001100110 ^
b101010000001001101001100110 ,"
b1000101101000000010100001010101 _
b1000101101000000010100001010101 ("
b110 !"
b101011010000100000100111110101 w
b101011010000100000100111110101 )"
b101011010000100000100111110101 1"
b100010000001001101001101010 x
b100010000001001101001101010 *"
b11010101010100001111011001100110 y
b11010101010100001111011001100110 +"
b11001000110000110100011110100111 z
b1110001010000100110000010101101 {
b1110001010000100110000010101101 %"
b1110001010000100110000010101101 3"
b1000011101011011010001001000101 |
b1000011101011011010001001000101 &"
b100100111000000000100001010000 }
b100100111000000000100001010000 '"
b11010010011001000101110001011010 a
b11111001001010010011100111101011 ~
b1000 ?
1+
#110000
0+
#115000
b101001010010011110101101101100 [
b101001010010011110101101101100 2"
b10101100011011111101010101001 Z
b10101100011011111101010101001 4"
b111 $"
b1001110100010111111011101001100 `
b100101010000100000101111100000 ^
b100101010000100000101111100000 ,"
b1010001100010100010001001000101 _
b1010001100010100010001001000101 ("
b111 !"
b11100101000000110000001110000000 w
b11100101000000110000001110000000 )"
b11100101000000110000001110000000 1"
b101011010000100000100111110101 x
b101011010000100000100111110101 *"
b100010000001001101001101010 y
b100010000001001101001101010 +"
b11010101010100001111011001100110 z
b10011011001001111010010000000001 {
b10011011001001111010010000000001 %"
b10011011001001111010010000000001 3"
b1110001010000100110000010101101 |
b1110001010000100110000010101101 &"
b1000011101011011010001001000101 }
b1000011101011011010001001000101 '"
b110111000101001000010000010011 a
b100100111000000000100001010000 ~
b1001 ?
1+
#120000
0+
#125000
b10111010011110010100110111000010 [
b10111010011110010100110111000010 2"
b10011001101011010010010111000000 Z
b10011001101011010010010111000000 4"
b1000 $"
b1011111011110110101100110010111 `
b10100101000000100000101111010101 ^
b10100101000000100000101111010101 ,"
b1111001001001110010000010000101 _
b1111001001001110010000010000101 ("
b1000 !"
b10000101101000000111101101011111 w
b10000101101000000111101101011111 )"
b10000101101000000111101101011111 1"
b11100101000000110000001110000000 x
b11100101000000110000001110000000 *"
b101011010000100000100111110101 y
b101011010000100000100111110101 +"
b100010000001001101001101010 z
b1100011001010111101001111001 {
b1100011001010111101001111001 %"
b1100011001010111101001111001 3"
b10011011001001111010010000000001 |
b10011011001001111010010000000001 &"
b1110001010000100110000010101101 }
b1110001010000100110000010101101 '"
b101110100010011001001100100010 a
b1000011101011011010001001000101 ~
b1010 ?
1+
#130000
0+
#135000
b10101111111111010110100110001 [
b10101111111111010110100110001 2"
b11100100010110111011011111101010 Z
b11100100010110111011011111101010 4"
b1001 $"
b10011011000000000001100011001010 `
b10000101000000000110101110011001 ^
b10000101000000000110101110011001 ,"
b10001001011001011010100000001001 _
b10001001011001011010100000001001 ("
b1001 !"
b10001110000001001110110010111001 w
b10001110000001001110110010111001 )"
b10001110000001001110110010111001 1"
b10000101101000000111101101011111 x
b10000101101000000111101101011111 *"
b11100101000000110000001110000000 y
b11100101000000110000001110000000 +"
b101011010000100000100111110101 z
b110010110010100010110110001100 {
b110010110010100010110110001100 %"
b110010110010100010110110001100 3"
b1100011001010111101001111001 |
b1100011001010111101001111001 &"
b10011011001001111010010000000001 }
b10011011001001111010010000000001 '"
b11110001100001110001101110100001 a
b1110001010000100110000010101101 ~
b1011 ?
1+
#140000
0+
#145000
b1011100101011000000011100010001 [
b1011100101011000000011100010001 2"
b10001110001000100111011010111100 Z
b10001110001000100111011010111100 4"
b1010 $"
b11101001001100001000001110001100 `
b10001100100001000111110001111011 ^
b10001100100001000111110001111011 ,"
b10000111011000111111111101101 _
b10000111011000111111111101101 ("
b1010 !"
b10001100100001110011010001101011 w
b10001100100001110011010001101011 )"
b10001100100001110011010001101011 1"
b10001110000001001110110010111001 x
b10001110000001001110110010111001 *"
b10000101101000000111101101011111 y
b10000101101000000111101101011111 +"
b11100101000000110000001110000000 z
b11100110010010010010110010110 {
b11100110010010010010110010110 %"
b11100110010010010010110010110 3"
b110010110010100010110110001100 |
b110010110010100010110110001100 &"
b1100011001010111101001111001 }
b1100011001010111101001111001 '"
b1011110011010000010000001101000 a
b10011011001001111010010000000001 ~
b1100 ?
1+
#150000
0+
#155000
b1101100110010111100010100100110 [
b1101100110010111100010100100110 2"
b1101001100101000011010111001010 Z
b1101001100101000011010111001010 4"
b1011 $"
b11111011010100000110101000011111 `
b10001110100001001010010011111001 ^
b10001110100001001010010011111001 ,"
b110000110010010010110110000100 _
b110000110010010010110110000100 ("
b1011 !"
b1000111100110001010001111110100 w
b1000111100110001010001111110100 )"
b1000111100110001010001111110100 1"
b10001100100001110011010001101011 x
b10001100100001110011010001101011 *"
b10001110000001001110110010111001 y
b10001110000001001110110010111001 +"
b10000101101000000111101101011111 z
b1000011011010110010001111101000 {
b1000011011010110010001111101000 %"
b1000011011010110010001111101000 3"
b11100110010010010010110010110 |
b11100110010010010010110010110 &"
b110010110010100010110110001100 }
b110010110010100010110110001100 '"
b11111011110011110101101110001010 a
b1100011001010111101001111001 ~
b1101 ?
1+
#160000
0+
#165000
b101111100111101110111001001000 [
b101111100111101110111001001000 2"
b11001100110111101110011001100001 Z
b11001100110111101110011001100001 4"
b1100 $"
b11110111001111101001010000110001 `
b11000111100111111010010111101001 ^
b11000111100111111010010111101001 ,"
b11101111010110010001111111110 _
b11101111010110010001111111110 ("
b1100 !"
b11110111000111111100010110101001 w
b11110111000111111100010110101001 )"
b11110111000111111100010110101001 1"
b1000111100110001010001111110100 x
b1000111100110001010001111110100 *"
b10001100100001110011010001101011 y
b10001100100001110011010001101011 +"
b10001110000001001110110010111001 z
b10000001011011111101011011101001 {
b10000001011011111101011011101001 %"
b10000001011011111101011011101001 3"
b1000011011010110010001111101000 |
b1000011011010110010001111101000 &"
b11100110010010010010110010110 }
b11100110010010010010110010110 '"
b10010000010100101001010101011111 a
b110010110010100010110110001100 ~
b1110 ?
1+
#170000
0+
#175000
b101001110001100011010011110011 [
b101001110001100011010011110011 2"
b1000101110111001100011110111 Z
b1000101110111001100011110111 4"
b1101 $"
b11110001010111111101011010100011 `
b11000111100110011010000110110000 ^
b11000111100110011010000110110000 ,"
b1000001011011111010001111101000 _
b1000001011011111010001111101000 ("
b1101 !"
b10000111100100010010100110010000 w
b10000111100100010010100110010000 )"
b10000111100100010010100110010000 1"
b11110111000111111100010110101001 x
b11110111000111111100010110101001 *"
b1000111100110001010001111110100 y
b1000111100110001010001111110100 +"
b10001100100001110011010001101011 z
b11110010101111000001000011000 {
b11110010101111000001000011000 %"
b11110010101111000001000011000 3"
b10000001011011111101011011101001 |
b10000001011011111101011011101001 &"
b1000011011010110010001111101000 }
b1000011011010110010001111101000 '"
b11100111110100110001010001110011 a
b11100110010010010010110010110 ~
b1111 ?
1+
#180000
0+
#185000
b100101010101100010100000110110 [
b100101010101100010100000110110 2"
b1001111001110111000110101010000 Z
b1001111001110111000110101010000 4"
b1110 $"
b11111100011010100001000111000110 `
b11010111000100111110100110010000 ^
b11010111000100111110100110010000 ,"
b10010101011101111001011000111001 _
b10010101011101111001011000111001 ("
b1110 !"
b11011001001100101110101100010110 w
b11011001001100101110101100010110 )"
b11011001001100101110101100010110 1"
b10000111100100010010100110010000 x
b10000111100100010010100110010000 *"
b11110111000111111100010110101001 y
b11110111000111111100010110101001 +"
b1000111100110001010001111110100 z
b1110100010110100100100011011110 {
b1110100010110100100100011011110 %"
b1110100010110100100100011011110 3"
b11110010101111000001000011000 |
b11110010101111000001000011000 &"
b10000001011011111101011011101001 }
b10000001011011111101011011101001 '"
b11000011111110100100111000011000 a
b1000011011010110010001111101000 ~
b10000 ?
1+
#190000
0+
#195000
b10010100000011101001000011101111 ]
b10010100000011101001000011101111 -"
b11011111100100000110111111010100 [
b11011111100100000110111111010100 2"
b10111000110101100011111110010011 Z
b10111000110101100011111110010011 4"
b1111 $"
b10100000110000001101101101101010 `
b11000001001100000110101110010110 ^
b11000001001100000110101110010110 ,"
b10100010101110100000000011100 _
b10100010101110100000000011100 ("
b1100001011000100110001110000000 Y
b1100001011000100110001110000000 ."
b1111 !"
b11000000011001000101111111011110 w
b11000000011001000101111111011110 )"
b11000000011001000101111111011110 1"
b11011001001100101110101100010110 x
b11011001001100101110101100010110 *"
b10000111100100010010100110010000 y
b10000111100100010010100110010000 +"
b11110111000111111100010110101001 z
b1011100100101111001000001100 {
b1011100100101111001000001100 %"
b1011100100101111001000001100 3"
b1110100010110100100100011011110 |
b1110100010110100100100011011110 &"
b11110010101111000001000011000 }
b11110010101111000001000011000 '"
b10000001110010100100000100100 a
b10000001011011111101011011101001 ~
b10001 ?
1+
#200000
0+
#205000
b0 ]
b0 -"
b1011000110001010011010111110001 [
b1011000110001010011010111110001 2"
b100001001110110110100110010101 Z
b100001001110110110100110010101 4"
b10000 $"
b101001001101111010000110001111 `
b11010000011100100110101110011110 ^
b11010000011100100110101110011110 ,"
b1110011000100100100000000011110 _
b1110011000100100100000000011110 ("
b0 Y
b0 ."
b10000 !"
b10110000111110100010001110001110 w
b10110000111110100010001110001110 )"
b10110000111110100010001110001110 1"
b11000000011001000101111111011110 x
b11000000011001000101111111011110 *"
b11011001001100101110101100010110 y
b11011001001100101110101100010110 +"
b10000111100100010010100110010000 z
b111010110010000110111001101 {
b111010110010000110111001101 %"
b111010110010000110111001101 3"
b1011100100101111001000001100 |
b1011100100101111001000001100 &"
b1110100010110100100100011011110 }
b1110100010110100100100011011110 '"
b10010111010000001001010110001100 a
b11110010101111000001000011000 ~
b10010 ?
1+
#210000
0+
#215000
b11110000000000000000 \
b11110000000000000000 /"
b10101000000111000110000100000110 [
b10101000000111000110000100000110 2"
b11111011001001110001001011000100 Z
b11111011001001110001001011000100 4"
b10001 $"
b1101000100101001001100010100100 `
b11000000011110000011011110011110 ^
b11000000011110000011011110011110 ,"
b111010100110100110100001100 _
b111010100110100110100001100 ("
b11000 X
b11000 0"
b10001 !"
b11000000011110000011011100011011 w
b11000000011110000011011100011011 )"
b11000000011110000011011100011011 1"
b10110000111110100010001110001110 x
b10110000111110100010001110001110 *"
b11000000011001000101111111011110 y
b11000000011001000101111111011110 +"
b11011001001100101110101100010110 z
b11110110100011011111100011100 {
b11110110100011011111100011100 %"
b11110110100011011111100011100 3"
b111010110010000110111001101 |
b111010110010000110111001101 &"
b1011100100101111001000001100 }
b1011100100101111001000001100 '"
b1110100010110100100100011011110 ~
b1100110100100101111000000110100 a
b10011 ?
1+
#220000
0+
#225000
b1111101101010000110010000000101 \
b1111101101010000110010000000101 /"
b11101011001011001111100000110110 [
b11101011001011001111100000110110 2"
b10100011010101010100101011001001 Z
b10100011010101010100101011001001 4"
b10010 $"
b10101011101001110001101111010000 `
b11000000011110100010001110011010 ^
b11000000011110100010001110011010 ,"
b11110110110011001111110001101 _
b11110110110011001111110001101 ("
b1100001011000100110001110000000 X
b1100001011000100110001110000000 0"
b10010 !"
b11001111001001111000100011011000 w
b11001111001001111000100011011000 )"
b11001111001001111000100011011000 1"
b11000000011110000011011100011011 x
b11000000011110000011011100011011 *"
b10110000111110100010001110001110 y
b10110000111110100010001110001110 +"
b11000000011001000101111111011110 z
b111111110001011101101101001010 {
b111111110001011101101101001010 %"
b111111110001011101101101001010 3"
b11110110100011011111100011100 |
b11110110100011011111100011100 &"
b111010110010000110111001101 }
b111010110010000110111001101 '"
b1011100100101111001000001100 ~
b11011101100000110111101000101000 a
b10100 ?
1+
#230000
0+
#235000
b1100000000000000000001111000110 \
b1100000000000000000001111000110 /"
b100111110110010000111000001110 [
b100111110110010000111000001110 2"
b10101001010010010010000011011101 Z
b10101001010010010010000011011101 4"
b10011 $"
b11110001000000111010001111100110 `
b11001001001010101001010111011000 ^
b11001001001010101001010111011000 ,"
b11111110101011111111100011010 _
b11111110101011111111100011010 ("
b11110000000000000000 X
b11110000000000000000 0"
b10011 !"
b10001001001010101001010111111000 w
b10001001001010101001010111111000 )"
b10001001001010101001010111111000 1"
b11001111001001111000100011011000 x
b11001111001001111000100011011000 *"
b11000000011110000011011100011011 y
b11000000011110000011011100011011 +"
b10110000111110100010001110001110 z
b10011101111001111101101000000110 {
b10011101111001111101101000000110 %"
b10011101111001111101101000000110 3"
b111111110001011101101101001010 |
b111111110001011101101101001010 &"
b11110110100011011111100011100 }
b11110110100011011111100011100 '"
b111010110010000110111001101 ~
b11110100100001001100111110010000 a
b10101 ?
1+
#240000
0+
#245000
b111110100111010111101101111000 \
b111110100111010111101101111000 /"
b11000110001110101100001000 [
b11000110001110101100001000 2"
b10100110001110001101101101000000 Z
b10100110001110001101101101000000 4"
b10100 $"
b11010000010000110111110100000000 `
b11001101001010101001000111111000 ^
b11001101001010101001000111111000 ,"
b10011111111001111101101001000110 _
b10011111111001111101101001000110 ("
b1111101101010000110010000000101 X
b1111101101010000110010000000101 0"
b10100 !"
b11100101100010000111001101110110 w
b11100101100010000111001101110110 )"
b11100101100010000111001101110110 1"
b10001001001010101001010111111000 x
b10001001001010101001010111111000 *"
b11001111001001111000100011011000 y
b11001111001001111000100011011000 +"
b11000000011110000011011100011011 z
b10100101011111101111001100011110 {
b10100101011111101111001100011110 %"
b10100101011111101111001100011110 3"
b10011101111001111101101000000110 |
b10011101111001111101101000000110 &"
b111111110001011101101101001010 }
b111111110001011101101101001010 '"
b11110110100011011111100011100 ~
b10010010110110111010000100010001 a
b10110 ?
1+
#250000
0+
#255000
b1100000111111110000000000 \
b1100000111111110000000000 /"
b11010100001101001001101011110000 [
b11010100001101001001101011110000 2"
b11101001010110011001100110010 Z
b11101001010110011001100110010 4"
b10101 $"
b10110101001111101011001001100000 `
b11100001000010100001011101110000 ^
b11100001000010100001011101110000 ,"
b10001101111101101101001000001110 _
b10001101111101101101001000001110 ("
b1100000000000000000001111000110 X
b1100000000000000000001111000110 0"
b10101 !"
b1100011000111110001111000010001 w
b1100011000111110001111000010001 )"
b1100011000111110001111000010001 1"
b11100101100010000111001101110110 x
b11100101100010000111001101110110 *"
b10001001001010101001010111111000 y
b10001001001010101001010111111000 +"
b11001111001001111000100011011000 z
b1010011010100111101100000101100 {
b1010011010100111101100000101100 %"
b1010011010100111101100000101100 3"
b10100101011111101111001100011110 |
b10100101011111101111001100011110 &"
b10011101111001111101101000000110 }
b10011101111001111101101000000110 '"
b111111110001011101101101001010 ~
b110101010111000110010100110100 a
b10111 ?
1+
#260000
0+
#265000
b10010110111001011111111000011 \
b10010110111001011111111000011 /"
b11101010010111111100001010010111 [
b11101010010111111100001010010111 2"
b10110000011001011001100111000111 Z
b10110000011001011001100111000111 4"
b10110 $"
b11001101111110101101100110101011 `
b11100011100110110001011100010100 ^
b11100011100110110001011100010100 ,"
b10100001011111111101100100011110 _
b10100001011111111101100100011110 ("
b111110100111010111101101111000 X
b111110100111010111101101111000 0"
b10110 !"
b11101010100110110001011110010100 w
b11101010100110110001011110010100 )"
b11101010100110110001011110010100 1"
b1100011000111110001111000010001 x
b1100011000111110001111000010001 *"
b11100101100010000111001101110110 y
b11100101100010000111001101110110 +"
b10001001001010101001010111111000 z
b100100000111110111000001100 {
b100100000111110111000001100 %"
b100100000111110111000001100 3"
b1010011010100111101100000101100 |
b1010011010100111101100000101100 &"
b10100101011111101111001100011110 }
b10100101011111101111001100011110 '"
b10011101111001111101101000000110 ~
b1001100011111011111011011000111 a
b11000 ?
1+
#270000
0+
#275000
b10000001100000000110000000001110 \
b10000001100000000110000000001110 /"
b11100110010011110010111110110011 [
b11100110010011110010111110110011 2"
b10111100111010100100100011001001 Z
b10111100111010100100100011001001 4"
b10111 $"
b1010000011010100100010111000011 `
b1101010000110110001011000010000 ^
b1101010000110110001011000010000 ,"
b110110100111101110000001100 _
b110110100111101110000001100 ("
b1100000111111110000000000 X
b1100000111111110000000000 0"
b10111 !"
b11010011110001101000001110010 w
b11010011110001101000001110010 )"
b11010011110001101000001110010 1"
b11101010100110110001011110010100 x
b11101010100110110001011110010100 *"
b1100011000111110001111000010001 y
b1100011000111110001111000010001 +"
b11100101100010000111001101110110 z
b11010101101010001000110010111111 {
b11010101101010001000110010111111 %"
b11010101101010001000110010111111 3"
b100100000111110111000001100 |
b100100000111110111000001100 &"
b1010011010100111101100000101100 }
b1010011010100111101100000101100 '"
b10100101011111101111001100011110 ~
b11100000001101101010000011001101 a
b11001 ?
1+
#280000
0+
